{
    "project.type": "js",
    "appidkey": "GitTest",
    "mwaddrkey": "",
    "isNewAppWithRespectToAndroidPackageName": "",
    "startupformkey": "",
    "defaulttheme": "defaultTheme",
    "vendornamekey": "KonyLabs",
    "konyVizVersion": "7.2.1.6",
    "createdgaversion": "7.2.0",
    "isDpScaleFactor": "true",
    "apppackagekey": "",
    "referenceWidth": "375",
    "appaddrkey": "",
    "winmobileguidkey": "",
    "APPLICATION_THEME": "default",
    "build": "debug",
    "appnamekey": "GitTest",
    "project_version": "sprint25",
    "currentgaversion": "7.2.0",
    "mwportkey": "",
    "createdVizVersion": "7.2.1.6",
    "appversionkey": "1.0.0",
    "mwhttpsportkey": "",
    "nativeContainerProperties": {
        "isModified": true,
        "isEnableJSContainer": false,
        "isEnableJSContainerAndroid": false,
        "isEnableJSContaineriOS": false
    }
}